{
    "current_page": 1,
    "data": [
        {
            "id": 1,
            "title": "Enim reprehenderit tempora sint tempora eaque.",
            "description_min": "Est nihil ut id et quia vero ex. In consequatur sint eum iusto ad.",
            "description_max": "<html><head><title>Commodi mollitia vero perferendis magnam incidunt non accusamus.</title></head><body><form action=\"example.net\" method=\"POST\"><label for=\"username\">officiis</label><input type=\"text\" id=\"username\"><label for=\"password\">dolorem</label><input type=\"password\" id=\"password\"></form><div class=\"quo\"><div id=\"15342\"><table><thead><tr><th>Molestiae quis ea.</th></tr></thead><tbody><tr><td>Id et.</td></tr><tr><td>Quo praesentium minima sit ut atque.</td></tr><tr><td>Quia veniam consequatur id sequi voluptatem.</td></tr><tr><td>Incidunt et ut sit sequi quas in.</td></tr><tr><td>Soluta.</td></tr><tr><td>Adipisci molestiae ex laudantium quo beatae in.</td></tr><tr><td>Est modi delectus sit occaecati error.</td></tr></tbody></table><h1>Vel porro vel dolor hic et qui.</h1></div><div id=\"28274\"></div><div class=\"sequi\"><h2>Sunt sint eum est velit nihil.</h2></div></div><div id=\"2059\"></div></body></html>\n",
            "slug": "exercitationem-praesentium-minus-voluptates-debitis-possimus-ipsum-ab",
            "img": "post-1.jpg",
            "active": true,
            "seo_title": "Omnis qui laudantium expedita.",
            "seo_desc": "Autem deleniti fugiat sed quo incidunt provident.",
            "seo_keys": "Dolorem sit qui id voluptatum.",
            "created_at": "2021-09-02T17:57:09.000000Z",
            "updated_at": "2021-09-02T17:57:09.000000Z"
        },
        {
            "id": 2,
            "title": "Autem dolores at enim consequatur et ea eveniet.",
            "description_min": "Non in et nesciunt dicta. Velit saepe rerum placeat nemo et. Dicta sit placeat in ea.",
            "description_max": "<html><head><title>Cupiditate sit quia.</title></head><body><form action=\"example.org\" method=\"POST\"><label for=\"username\">cupiditate</label><input type=\"text\" id=\"username\"><label for=\"password\">velit</label><input type=\"password\" id=\"password\"></form><div class=\"tenetur\"></div></body></html>\n",
            "slug": "unde-ex-natus-aspernatur-impedit-debitis-nihil-tempora",
            "img": "post-4.jpg",
            "active": true,
            "seo_title": "Eveniet sed nam quisquam ducimus qui magni.",
            "seo_desc": "Amet rem facilis provident atque ad a autem.",
            "seo_keys": "Ut maiores nisi illo et.",
            "created_at": "2021-09-02T17:57:11.000000Z",
            "updated_at": "2021-09-02T17:57:11.000000Z"
        },
        {
            "id": 3,
            "title": "Voluptatem earum dolor harum est est.",
            "description_min": "Excepturi odit autem laborum sed itaque numquam dicta. Qui ex maiores error.",
            "description_max": "<html><head><title>Voluptatibus qui vel sunt corporis.</title></head><body><form action=\"example.org\" method=\"POST\"><label for=\"username\">illum</label><input type=\"text\" id=\"username\"><label for=\"password\">consectetur</label><input type=\"password\" id=\"password\"></form><div class=\"quo\"></div><div id=\"99854\"><div class=\"et\"></div><div id=\"41015\">Ut doloribus aspernatur velit exercitationem rerum est.</div><div id=\"38817\"></div><div id=\"66498\"><i>Voluptatem eum eum dolores sit vel.</i><h3>Commodi quasi ab dicta molestiae assumenda consequuntur deserunt.</h3><p>Eum ab repellat iusto et voluptatem.</p></div></div><div class=\"placeat\"></div></body></html>\n",
            "slug": "aperiam-neque-dolorem-praesentium-eos",
            "img": "post-7.jpg",
            "active": true,
            "seo_title": "Impedit voluptatem aperiam saepe beatae cupiditate.",
            "seo_desc": "Nihil cupiditate quo inventore repudiandae quod dignissimos non.",
            "seo_keys": "Sit debitis laudantium animi voluptate ex.",
            "created_at": "2021-09-02T17:57:12.000000Z",
            "updated_at": "2021-09-02T17:57:12.000000Z"
        },
        {
            "id": 4,
            "title": "Provident quo occaecati facere non perspiciatis facere.",
            "description_min": "Commodi corporis molestiae eius nemo et reprehenderit ea. Expedita ipsam et rerum id eligendi.",
            "description_max": "<html><head><title>Quaerat sit unde.</title></head><body><form action=\"example.net\" method=\"POST\"><label for=\"username\">repudiandae</label><input type=\"text\" id=\"username\"><label for=\"password\">ratione</label><input type=\"password\" id=\"password\"></form><div id=\"32875\">Perferendis.<ul><li>Numquam non.</li><li>Neque ut totam.</li><li>Deleniti sed.</li><li>Porro atque.</li><li>Odio alias sint et.</li><li>Veritatis suscipit.</li><li>Saepe quasi dolore.</li><li>Sit facilis.</li><li>Ea.</li><li>Quos eum voluptatibus.</li><li>Ratione optio fugit quibusdam.</li></ul><span>Tempora iste quia et aut libero.</span></div><div id=\"58923\"><div id=\"58899\"></div><div id=\"31485\"></div><div class=\"mollitia\"><table><thead><tr><th>Est explicabo.</th><th>Qui sapiente nam.</th><th>Sit laboriosam expedita velit.</th></tr></thead><tbody><tr><td>Molestiae sunt velit qui soluta eum sapiente praesentium qui itaque et.</td><td>Sunt quia reiciendis est consequatur distinctio iusto.</td><td>Quisquam molestiae officia rerum aut eligendi qui occaecati ipsam occaecati.</td></tr><tr><td>Ut ducimus libero enim.</td><td>Quis.</td><td>Sunt quibusdam et nesciunt id similique officiis facere ut.</td></tr><tr><td>Sequi excepturi repellendus eum sunt unde omnis similique.</td><td>Sit excepturi soluta.</td><td>Sed harum quidem magnam velit.</td></tr><tr><td>Perferendis dolores omnis ducimus dolore maxime.</td><td>Eum culpa explicabo ipsam officiis occaecati.</td><td>Magnam consectetur qui voluptas aut sed ducimus.</td></tr><tr><td>Maxime repudiandae tenetur et voluptas et ratione nisi sint quia sequi atque quae.</td><td>Consectetur nihil veritatis quo vitae.</td><td>Consectetur eum inventore error ex est nam magnam odit libero ab dolorem.</td></tr><tr><td>Vitae itaque earum delectus nobis.</td><td>Nihil eveniet cum dolorum velit recusandae commodi id.</td><td>Ut voluptatem tempora.</td></tr></tbody></table><a href=\"example.com\">Voluptate repudiandae enim mollitia ut.</a><a href=\"example.org\">Error corrupti.</a></div><div id=\"81460\"></div></div></body></html>\n",
            "slug": "fuga-vel-harum-blanditiis-vel-ullam-asperiores-dolor",
            "img": "post-0.jpg",
            "active": true,
            "seo_title": "Deserunt sapiente ut ut fuga voluptatem ut non.",
            "seo_desc": "Nobis ad dolorem sit harum minus ut ratione et.",
            "seo_keys": "Et dignissimos at aut et.",
            "created_at": "2021-09-02T17:57:13.000000Z",
            "updated_at": "2021-09-02T17:57:13.000000Z"
        },
        {
            "id": 5,
            "title": "Placeat deleniti perspiciatis nesciunt aut necessitatibus nam.",
            "description_min": "Architecto sit fugit et. Qui qui a cupiditate hic incidunt. Quo hic est rem quae.",
            "description_max": "<html><head><title>Impedit est minima.</title></head><body><form action=\"example.com\" method=\"POST\"><label for=\"username\">voluptatem</label><input type=\"text\" id=\"username\"><label for=\"password\">quis</label><input type=\"password\" id=\"password\"></form><div id=\"39607\"><div class=\"impedit\"></div><div id=\"47354\"><table><thead><tr><th>Nobis eum natus ut.</th><th>Quisquam pariatur sit.</th><th>Ducimus quibusdam nihil.</th><th>Laborum aut et molestiae.</th><th>Nemo ipsa et.</th></tr></thead><tbody><tr><td>Est qui possimus assumenda tempore ipsam vitae.</td><td>Officiis quis et et.</td><td>Sed esse repellendus quaerat consequatur.</td><td>Ut dicta quo mollitia tenetur doloremque consequuntur fuga deleniti.</td><td>Cumque voluptatum voluptas.</td></tr></tbody></table><p>Fugiat exercitationem fugit recusandae vel voluptate tenetur hic beatae delectus cupiditate.</p>Assumenda at distinctio.<b>Neque perferendis eos consequatur reiciendis.</b></div><div id=\"62338\">Eum quasi quibusdam voluptas et.<ul><li>Sed veniam.</li><li>Id.</li><li>Et.</li><li>Ut.</li><li>Iste fugiat et.</li><li>Fuga illo et.</li><li>Iste reprehenderit.</li><li>Numquam ipsa laboriosam fugit.</li></ul><ul><li>Accusamus nisi.</li><li>Similique dolores nemo.</li><li>Quidem sit.</li><li>Cum quae qui quod officiis.</li><li>Delectus excepturi voluptas quo dicta.</li><li>Quasi velit officia repudiandae recusandae.</li><li>Reprehenderit nam neque dolore.</li><li>Natus sint sint delectus.</li></ul></div></div><div id=\"65535\"></div></body></html>\n",
            "slug": "ab-iste-quibusdam-consectetur-adipisci",
            "img": "post-6.jpg",
            "active": true,
            "seo_title": "Soluta est possimus eos nisi et esse exercitationem.",
            "seo_desc": "Beatae beatae atque enim illo ea porro.",
            "seo_keys": "Qui sed dolores quia aut numquam.",
            "created_at": "2021-09-02T17:57:13.000000Z",
            "updated_at": "2021-09-02T17:57:13.000000Z"
        },
        {
            "id": 6,
            "title": "Voluptatem ut totam molestias recusandae exercitationem error.",
            "description_min": "Numquam eligendi necessitatibus eum repellendus sed beatae. Ut aut tempora eum sapiente earum sed.",
            "description_max": "<html><head><title>Aperiam quibusdam suscipit libero sed architecto enim dolorum aut neque cum cumque.</title></head><body><form action=\"example.com\" method=\"POST\"><label for=\"username\">aut</label><input type=\"text\" id=\"username\"><label for=\"password\">consectetur</label><input type=\"password\" id=\"password\"></form><div id=\"457\"></div></body></html>\n",
            "slug": "id-deleniti-id-vel-eius",
            "img": "post-8.jpg",
            "active": true,
            "seo_title": "Reiciendis exercitationem consequatur accusamus quod.",
            "seo_desc": "Voluptas dolorum quae at aspernatur libero aliquam harum.",
            "seo_keys": "Laudantium perspiciatis repudiandae qui eum quam vel.",
            "created_at": "2021-09-02T17:57:14.000000Z",
            "updated_at": "2021-09-02T17:57:14.000000Z"
        },
        {
            "id": 7,
            "title": "Tempora molestiae quia perspiciatis voluptate quae animi ut.",
            "description_min": "Vitae suscipit voluptatibus id ab quas. Et blanditiis labore ea recusandae libero modi nobis.",
            "description_max": "<html><head><title>Odio est et.</title></head><body><form action=\"example.com\" method=\"POST\"><label for=\"username\">dignissimos</label><input type=\"text\" id=\"username\"><label for=\"password\">debitis</label><input type=\"password\" id=\"password\"></form><div id=\"47247\"></div></body></html>\n",
            "slug": "rerum-dolorem-accusantium-quas-aut",
            "img": "post-4.jpg",
            "active": true,
            "seo_title": "Sit ut quisquam sint qui.",
            "seo_desc": "Dolor et esse et ut alias.",
            "seo_keys": "Dignissimos sit nisi animi ut quasi qui distinctio.",
            "created_at": "2021-09-02T17:57:15.000000Z",
            "updated_at": "2021-09-02T17:57:15.000000Z"
        },
        {
            "id": 8,
            "title": "Corrupti deserunt commodi reiciendis odit enim dolorem.",
            "description_min": "Animi quia mollitia dignissimos nobis. Ducimus vel quae dolor consequatur cumque est optio.",
            "description_max": "<html><head><title>Id distinctio voluptates.</title></head><body><form action=\"example.org\" method=\"POST\"><label for=\"username\">iusto</label><input type=\"text\" id=\"username\"><label for=\"password\">odio</label><input type=\"password\" id=\"password\"></form><div class=\"qui\"><span>Sit repudiandae vero.</span><b>Consequatur et.</b></div><div id=\"25826\"></div><div class=\"ut\"></div><div id=\"98436\"></div></body></html>\n",
            "slug": "aut-est-occaecati-nemo-et-et-et-consequatur",
            "img": "post-2.jpg",
            "active": true,
            "seo_title": "Et quibusdam et enim omnis laborum tempore.",
            "seo_desc": "Ducimus enim itaque provident est ipsam earum quasi qui.",
            "seo_keys": "Totam et et omnis soluta consequuntur.",
            "created_at": "2021-09-02T17:57:15.000000Z",
            "updated_at": "2021-09-02T17:57:15.000000Z"
        },
        {
            "id": 9,
            "title": "Quia inventore id quasi possimus.",
            "description_min": "Facilis minus quia quis velit minus. Est ut et nisi impedit eligendi quibusdam.",
            "description_max": "<html><head><title>Dolorem quaerat quia dolores.</title></head><body><form action=\"example.org\" method=\"POST\"><label for=\"username\">fuga</label><input type=\"text\" id=\"username\"><label for=\"password\">omnis</label><input type=\"password\" id=\"password\"></form><div class=\"eaque\"><div class=\"aut\"></div><div class=\"est\"></div></div><div class=\"animi\"><div class=\"quam\"><table><thead><tr><th>Placeat beatae.</th><th>Quia non.</th></tr></thead><tbody><tr><td>Voluptatem nisi sed ratione.</td><td>Corporis eligendi ut fugit est quos aperiam nostrum.</td></tr></tbody></table></div><div id=\"77254\"></div><div class=\"quis\"></div></div><div class=\"perferendis\"></div></body></html>\n",
            "slug": "ullam-porro-qui-et-libero",
            "img": "post-6.jpg",
            "active": true,
            "seo_title": "Aut architecto aspernatur quo officia optio cum sit nemo.",
            "seo_desc": "Alias culpa in repudiandae sed porro.",
            "seo_keys": "Itaque quod magni eius quos aut praesentium.",
            "created_at": "2021-09-02T17:57:16.000000Z",
            "updated_at": "2021-09-02T17:57:16.000000Z"
        },
        {
            "id": 10,
            "title": "Pariatur eius id quidem dolor unde inventore cupiditate.",
            "description_min": "Tempora et modi quis ab. Natus est nemo et vel.",
            "description_max": "<html><head><title>Itaque sapiente aut sit provident.</title></head><body><form action=\"example.net\" method=\"POST\"><label for=\"username\">quo</label><input type=\"text\" id=\"username\"><label for=\"password\">quae</label><input type=\"password\" id=\"password\"></form><div id=\"35844\"></div><div id=\"72569\"><p>Ea sequi voluptas.</p><b>Magnam laudantium.</b><h1>Rem.</h1></div><div id=\"90645\"><div class=\"assumenda\"><i>Maiores officia veniam.</i><ul><li>Corrupti ex doloremque quisquam est aut.</li></ul></div><div class=\"animi\"></div></div></body></html>\n",
            "slug": "ratione-soluta-necessitatibus-et-deserunt-ex-alias",
            "img": "post-3.jpg",
            "active": true,
            "seo_title": "Quia explicabo earum quibusdam ipsam et quis.",
            "seo_desc": "Qui quae corrupti nesciunt nemo dolores quis.",
            "seo_keys": "Sunt beatae eum velit.",
            "created_at": "2021-09-02T17:57:16.000000Z",
            "updated_at": "2021-09-02T17:57:16.000000Z"
        }
    ],
    "first_page_url": "http://192.168.0.103/api/blog?page=1",
    "from": 1,
    "last_page": 5,
    "last_page_url": "http://192.168.0.103/api/blog?page=5",
    "links": [
        { "url": null, "label": "&laquo; Anterior", "active": false },
        { "url": "http://192.168.0.103/api/blog?page=1", "label": 1, "active": true },
        { "url": "http://192.168.0.103/api/blog?page=2", "label": 2, "active": false },
        { "url": "http://192.168.0.103/api/blog?page=3", "label": 3, "active": false },
        { "url": "http://192.168.0.103/api/blog?page=4", "label": 4, "active": false },
        { "url": "http://192.168.0.103/api/blog?page=5", "label": 5, "active": false },
        { "url": "http://192.168.0.103/api/blog?page=2", "label": "Siguiente &raquo;", "active": false }
    ],
    "next_page_url": "http://192.168.0.103/api/blog?page=2",
    "path": "http://192.168.0.103/api/blog",
    "per_page": 10,
    "prev_page_url": null,
    "to": 10,
    "total": 43
}
